Basic sensitivity analysis for Hospital prevalance in Ensemble Zero
…
#now automatically remove certain words
require("tm")
#have to do this iteratively, as some words only are removed in chunks
removewords1 <- c("Nhs", "Trust", "Foundation", "University Hospitals of ", "University Hospital of", "and District","University Local Board")
removewords2 <- c("University Hospitals", "University Hospital", "Teaching Hospitals", "Teaching Hospitals")
removewords3 <- c("Hospitals", "Hospital", "Teaching", "District", "Health", "Healthcare", "Services", "General", "Countess of ", "The", "Group", "Acute")

TrustNames <- strTrim(stripWhitespace(removeWords(TrustNames,removewords1)))
TrustNames <- strTrim(stripWhitespace(removeWords(TrustNames,removewords2)))
TrustNames <- strTrim(stripWhitespace(removeWords(TrustNames,removewords3)))
TrustNames <- strTrim(stripWhitespace(removeWords(TrustNames,removewords1)))
TrustNamesOnly <- mutate(TrustNamesOnly, ShortName = TrustNames)
TrustNamesOnly

## # A tibble: 134 x 3
##    trustId trustName                                ShortName              
##    <chr>   <chr>                                    <chr>                  
##  1 7A1     Betsi Cadwaladr University Local Health Betsi Cadwaladr        
##  2 7A2     Hywel Dda University Local Health Board  Hywel Dda              
##  3 7A3     Swansea Bay University Local Health Boa Swansea Bay            
##  4 7A4     Cardiff and Vale University Local Healt Cardiff and Vale       
##  5 7A5     Cwm Taf Morgannwg University Local Heal Cwm Taf Morgannwg      
##  6 7A6     Aneurin Bevan University Local Health B Aneurin Bevan          
##  7 R0B     South Tyneside And Sunderland NHS Found South Tyneside and Sun
##  8 R1F     Isle Of Wight NHS Trust                  Isle of Wight          
##  9 R1H     Barts Health NHS Trust                   Barts                  
## 10 RA2     Royal Surrey NHS Foundation Trust        Royal Surrey           
## #  with 124 more rows
…
The following code prepares the ensemble for emulation for all the English trusts with mogp_emulator which I do here anyway a more formal sensitivity analysis would need one.

AllEnglandIDs <- TrustNamesOnly$trustId[7:134]
Englandtrusts <- filter(TrustQuantiles, trustId %in% AllEnglandIDs)
Englandtrusts <- select(Englandtrusts, trustName, Quantile, output, Hprev) 
EmulateEngland <- dplyr::select(Englandtrusts, output, trustName, Quantile, Hprev) %>% 
  pivot_wider(names_from = trustName, values_from = Hprev)
design <- readRDS("~/Dropbox/BayesExeter/uq4covid.github.io/vignettes/data/EnsembleZero/inputs/design.rds")
#design <- dplyr::select(design, -repeats, -lock_2_release, -pCR, -pHRprime) %>%
design <- dplyr::select(design, -repeats, -pCR, -pHRprime) %>%
  mutate(Noise = runif(dim(design)[1],0,1))
ToEmulateEngland <- inner_join(design, EmulateEngland, by="output")
ToEmulateEngland

## # A tibble: 1,000 x 145
##    r_zero incubation_time infectious_time hospital_time critical_time
##     <dbl>           <dbl>           <dbl>         <dbl>         <dbl>
##  1  0.801           0.746           0.952         0.574         0.940
##  2  0.801           0.746           0.952         0.574         0.940
##  3  0.801           0.746           0.952         0.574         0.940
##  4  0.801           0.746           0.952         0.574         0.940
##  5  0.801           0.746           0.952         0.574         0.940
##  6  0.181           0.191           0.443         0.578         0.689
##  7  0.181           0.191           0.443         0.578         0.689
##  8  0.181           0.191           0.443         0.578         0.689
##  9  0.181           0.191           0.443         0.578         0.689
## 10  0.181           0.191           0.443         0.578         0.689
## #  with 990 more rows, and 140 more variables: lock_1_restrict <dbl>,
## #   lock_2_release <dbl>, pEA <dbl>, pIH <dbl>, pIRprime <dbl>, pHC <dbl>,
## #   GP_A <dbl>, GP_H <dbl>, GP_C <dbl>, output <chr>, Noise <dbl>,
## #   Quantile <dbl>, `South Tyneside and Sunderland` <dbl>, `Isle of
## #   Wight` <dbl>, Barts <dbl>, `Royal Surrey` <dbl>, `Weston Area` <dbl>,
## #   Yeovil <dbl>, Bristol <dbl>, `Torbay and South Devon` <dbl>,
## #   Bradford <dbl>, Southend <dbl>, `Royal Free London` <dbl>, `North
## #   Middlesex` <dbl>, Hillingdon <dbl>, Kingston <dbl>, `Dorset
## #   County` <dbl>, Walsall <dbl>, `Wirral University` <dbl>, `St Helens
…
