…
# A tibble: 0 × 5
# … with 5 variables: areaCode <chr>, areaName <chr>, areaType <chr>,
#   date <date>, cumDeathsByDeathDate <dbl>
Saving 7 x 7 in image

── Column specification ────────────────────────────────────────────────────────
cols(
  FID = col_double(),
  WD19CD = col_character(),
  WD19NM = col_character(),
  LAD19CD = col_character(),
  LAD19NM = col_character()
)

# A tibble: 1,017 × 3
# Groups:   areaCode [339]
   date       areaCode  cumDeaths
   <date>     <chr>         <dbl>
 1 2020-02-01 E06000001         0
 2 2020-02-02 E06000001         0
 3 2020-02-03 E06000001         0
 4 2020-02-01 E06000002         0
 5 2020-02-02 E06000002         0
 6 2020-02-03 E06000002         0
 7 2020-02-01 E06000003         0
 8 2020-02-02 E06000003         0
 9 2020-02-03 E06000003         0
10 2020-02-01 E06000004         0
# … with 1,007 more rows
…
